Visualizando pirámides de población en R – Juve Blog
…
# Checamos la base 
pop

# A tibble: 34 × 5
   `Entidad federativa` `Grupos quinquenales de edad` `Población total` Sexo   
   <chr>                <chr>                                     <dbl> <chr>  
 1 17 Morelos           00-04 años                               157558 Hombres
 2 17 Morelos           00-04 años                               157558 Mujeres
 3 17 Morelos           05-09 años                               164416 Hombres
 4 17 Morelos           05-09 años                               164416 Mujeres
 5 17 Morelos           10-14 años                               169614 Hombres
 6 17 Morelos           10-14 años                               169614 Mujeres
 7 17 Morelos           15-19 años                               169269 Hombres
 8 17 Morelos           15-19 años                               169269 Mujeres
 9 17 Morelos           20-24 años                               174065 Hombres
10 17 Morelos           20-24 años                               174065 Mujeres
# ℹ 24 more rows
# ℹ 1 more variable: `Poblacion por Sexo` <dbl>
…
